<?xml version="1.0" encoding="utf-8"?>
<!-- Generator: Adobe Illustrator 16.0.4, SVG Export Plug-In . SVG Version: 6.00 Build 0)  -->
<!DOCTYPE svg PUBLIC "-//W3C//DTD SVG 1.1//EN" "http://www.w3.org/Graphics/SVG/1.1/DTD/svg11.dtd">
<svg version="1.1" id="Layer_1" xmlns="http://www.w3.org/2000/svg" xmlns:xlink="http://www.w3.org/1999/xlink" x="0px" y="0px"
	 width="100px" height="100px" viewBox="0 0 100 100" enable-background="new 0 0 100 100" xml:space="preserve">
<path fill="#ffffff" d="M95.339,87.171L67.827,60.144c-0.133-0.13-0.271-0.249-0.408-0.37c4.553-6.128,7.248-13.719,7.248-21.939
	C74.667,17.491,58.176,1,37.833,1S1,17.491,1,37.834c0,20.342,16.49,36.833,36.833,36.833c7.551,0,14.568-2.275,20.411-6.174
	c0.208,0.251,0.426,0.497,0.665,0.731l27.51,27.025c3.098,3.043,7.607,3.478,10.068,0.971
	C98.951,94.714,98.436,90.215,95.339,87.171z M13.015,37.834c0-14.812,10.007-24.818,24.818-24.818s24.818,10.007,24.818,24.818
	S52.645,62.652,37.833,62.652S13.015,52.646,13.015,37.834z"/>
</svg>
